…
## Filter, group, and summarize: evaluation

Here we evaluate the generated data transformation code:


```r
res2 <- eval(expr = parse( text = paste(qrExpr)))
res2
```

```
## # A tibble: 24 x 5
##    homeworld    mass_mean height_mean mass_median height_median
##    <chr>            <dbl>       <dbl>       <dbl>         <dbl>
##  1 Alderaan            NA         191          NA           191
##  2 Bespin              79         175          79           175
##  3 Cerea               82         198          82           198
##  4 Chandrila           NA         150          NA           150
##  5 Concord Dawn        79         183          79           183
##  6 Corellia            80         180          80           180
##  7 Coruscant           NA         170          NA           170
##  8 Dathomir            80         175          80           175
##  9 Eriadu              NA         180          NA           180
## 10 Haruun Kal          84         188          84           188
## # … with 14 more rows
```
…
